Library\Bee\artifacts\mvdfrm\UnityEditor.TestRunner.ref.dll_193EC4CE382CBFB3.mvfrm
Library\Bee\artifacts\mvdfrm\UnityEditor.UI.ref.dll_4C98D3F7040CD4F5.mvfrm
Library\Bee\artifacts\mvdfrm\UnityEngine.TestRunner.ref.dll_E55D0F7C63F01D9E.mvfrm
Library\Bee\artifacts\mvdfrm\UnityEngine.UI.ref.dll_08FEAA520A2EFD60.mvfrm
Library\Bee\artifacts\mvdfrm\Unity.Plastic.Antlr3.Runtime.dll_C319E8368A7BA378.mvfrm
Library\Bee\artifacts\mvdfrm\Unity.Plastic.Newtonsoft.Json.dll_6F3EFAE5D0ADC63D.mvfrm
Library\Bee\artifacts\mvdfrm\Unity.VisualScripting.IonicZip.dll_593A9D5DAD98B1E6.mvfrm
Library\Bee\artifacts\mvdfrm\Unity.VisualScripting.YamlDotNet.dll_67A8892181CCF076.mvfrm
Library\Bee\artifacts\mvdfrm\Unity.VisualScripting.TextureAssets.dll_FEC6B275429A4E6E.mvfrm
Library\Bee\artifacts\mvdfrm\Unity.VisualScripting.Antlr3.Runtime.dll_1915B002B2960095.mvfrm
Library\Bee\artifacts\mvdfrm\UnityEditor.Graphs.dll_214B7853FD3CCE39.mvfrm
Library\Bee\artifacts\mvdfrm\UnityEditor.CoreModule.dll_DEBD30E6AAEA0B07.mvfrm
Library\Bee\artifacts\mvdfrm\UnityEditor.DeviceSimulatorModule.dll_17403C3E172CC26A.mvfrm
Library\Bee\artifacts\mvdfrm\UnityEditor.DiagnosticsModule.dll_074FDE8999AF4A38.mvfrm
Library\Bee\artifacts\mvdfrm\UnityEditor.dll_EA492A43B4930FDE.mvfrm
Library\Bee\artifacts\mvdfrm\UnityEditor.GraphViewModule.dll_D63D548C875B570F.mvfrm
Library\Bee\artifacts\mvdfrm\UnityEditor.PackageManagerUIModule.dll_84C09713DFCBA5A3.mvfrm
Library\Bee\artifacts\mvdfrm\UnityEditor.QuickSearchModule.dll_925F5F96F2864691.mvfrm
Library\Bee\artifacts\mvdfrm\UnityEditor.SceneTemplateModule.dll_DDFB456422AA7132.mvfrm
Library\Bee\artifacts\mvdfrm\UnityEditor.TextCoreFontEngineModule.dll_49933570F728A8A5.mvfrm
Library\Bee\artifacts\mvdfrm\UnityEditor.TextCoreTextEngineModule.dll_917B6BE286AC61C3.mvfrm
Library\Bee\artifacts\mvdfrm\UnityEditor.UIBuilderModule.dll_2AC601A8FA13D043.mvfrm
Library\Bee\artifacts\mvdfrm\UnityEditor.UIElementsModule.dll_832016593327D2E3.mvfrm
Library\Bee\artifacts\mvdfrm\UnityEditor.UIElementsSamplesModule.dll_FB2EDC8F5731ADBA.mvfrm
Library\Bee\artifacts\mvdfrm\UnityEditor.UIServiceModule.dll_63B8130BE34B205D.mvfrm
Library\Bee\artifacts\mvdfrm\UnityEditor.UnityConnectModule.dll_2E6DBAB788853D3D.mvfrm
Library\Bee\artifacts\mvdfrm\UnityEngine.AccessibilityModule.dll_10A0B0FB232098CF.mvfrm
Library\Bee\artifacts\mvdfrm\UnityEngine.AIModule.dll_0DD92732B44C3E7B.mvfrm
Library\Bee\artifacts\mvdfrm\UnityEngine.AndroidJNIModule.dll_0168FF2C7C4741B9.mvfrm
Library\Bee\artifacts\mvdfrm\UnityEngine.AnimationModule.dll_A4C2D0B561B82BB5.mvfrm
Library\Bee\artifacts\mvdfrm\UnityEngine.ARModule.dll_C74BEC3611699D44.mvfrm
Library\Bee\artifacts\mvdfrm\UnityEngine.AssetBundleModule.dll_D648928854ECFB83.mvfrm
Library\Bee\artifacts\mvdfrm\UnityEngine.AudioModule.dll_B97D5C80A8041767.mvfrm
Library\Bee\artifacts\mvdfrm\UnityEngine.ClothModule.dll_2065B97B8220F64B.mvfrm
Library\Bee\artifacts\mvdfrm\UnityEngine.ClusterInputModule.dll_AE0A2FCD3A0D1003.mvfrm
Library\Bee\artifacts\mvdfrm\UnityEngine.ClusterRendererModule.dll_1CECFEAF86E7CFEE.mvfrm
Library\Bee\artifacts\mvdfrm\UnityEngine.CoreModule.dll_01DE043952EF7632.mvfrm
Library\Bee\artifacts\mvdfrm\UnityEngine.CrashReportingModule.dll_745DC564A334DD0A.mvfrm
Library\Bee\artifacts\mvdfrm\UnityEngine.DirectorModule.dll_A58795478D80C0CF.mvfrm
Library\Bee\artifacts\mvdfrm\UnityEngine.dll_1CED711C13069CC3.mvfrm
Library\Bee\artifacts\mvdfrm\UnityEngine.DSPGraphModule.dll_AAD8F6B0FFE191F0.mvfrm
Library\Bee\artifacts\mvdfrm\UnityEngine.GameCenterModule.dll_2BB64947428832AA.mvfrm
Library\Bee\artifacts\mvdfrm\UnityEngine.GIModule.dll_A61570404FFB2695.mvfrm
Library\Bee\artifacts\mvdfrm\UnityEngine.GridModule.dll_DF4F20276B440C29.mvfrm
Library\Bee\artifacts\mvdfrm\UnityEngine.HotReloadModule.dll_260B8EBB3CEB4737.mvfrm
Library\Bee\artifacts\mvdfrm\UnityEngine.ImageConversionModule.dll_88DEFC60090C87E2.mvfrm
Library\Bee\artifacts\mvdfrm\UnityEngine.IMGUIModule.dll_F1DCFBE76E35AB48.mvfrm
Library\Bee\artifacts\mvdfrm\UnityEngine.InputLegacyModule.dll_678DADA6ECDEB174.mvfrm
Library\Bee\artifacts\mvdfrm\UnityEngine.InputModule.dll_1FF324311E3C3C0B.mvfrm
Library\Bee\artifacts\mvdfrm\UnityEngine.JSONSerializeModule.dll_70B83A37225BF959.mvfrm
Library\Bee\artifacts\mvdfrm\UnityEngine.LocalizationModule.dll_EC56FA1FD18902FC.mvfrm
Library\Bee\artifacts\mvdfrm\UnityEngine.NVIDIAModule.dll_9423C5E9ED6344DE.mvfrm
Library\Bee\artifacts\mvdfrm\UnityEngine.ParticleSystemModule.dll_C7700EB111466898.mvfrm
Library\Bee\artifacts\mvdfrm\UnityEngine.PerformanceReportingModule.dll_5613BC89E605BCF1.mvfrm
Library\Bee\artifacts\mvdfrm\UnityEngine.Physics2DModule.dll_F168C0A602B5234A.mvfrm
Library\Bee\artifacts\mvdfrm\UnityEngine.PhysicsModule.dll_BD1D9176BF24C518.mvfrm
Library\Bee\artifacts\mvdfrm\UnityEngine.ProfilerModule.dll_D7CDCE7E26DA47DC.mvfrm
Library\Bee\artifacts\mvdfrm\UnityEngine.RuntimeInitializeOnLoadManagerInitializerModule.dll_1D5CD40BE1582813.mvfrm
Library\Bee\artifacts\mvdfrm\UnityEngine.ScreenCaptureModule.dll_8A9FE7BC36C825BB.mvfrm
Library\Bee\artifacts\mvdfrm\UnityEngine.SharedInternalsModule.dll_0CF03B35803A8332.mvfrm
Library\Bee\artifacts\mvdfrm\UnityEngine.SpriteMaskModule.dll_14E2BBD763F7C824.mvfrm
Library\Bee\artifacts\mvdfrm\UnityEngine.SpriteShapeModule.dll_EFA9BFE30A8F338D.mvfrm
Library\Bee\artifacts\mvdfrm\UnityEngine.StreamingModule.dll_5957BE05B13FE2F3.mvfrm
Library\Bee\artifacts\mvdfrm\UnityEngine.SubstanceModule.dll_3602D24EFC92E101.mvfrm
Library\Bee\artifacts\mvdfrm\UnityEngine.SubsystemsModule.dll_7F902239323FB037.mvfrm
Library\Bee\artifacts\mvdfrm\UnityEngine.TerrainModule.dll_D7640CE594E30E06.mvfrm
Library\Bee\artifacts\mvdfrm\UnityEngine.TerrainPhysicsModule.dll_C7EAB7842A896325.mvfrm
Library\Bee\artifacts\mvdfrm\UnityEngine.TextCoreFontEngineModule.dll_C7F2B0C40A266770.mvfrm
Library\Bee\artifacts\mvdfrm\UnityEngine.TextCoreTextEngineModule.dll_0FDAE73599AA208E.mvfrm
Library\Bee\artifacts\mvdfrm\UnityEngine.TextRenderingModule.dll_B3DF59C6EDFFA5B0.mvfrm
Library\Bee\artifacts\mvdfrm\UnityEngine.TilemapModule.dll_76607466AC9FEF0F.mvfrm
Library\Bee\artifacts\mvdfrm\UnityEngine.TLSModule.dll_2B40188C0E240FEC.mvfrm
Library\Bee\artifacts\mvdfrm\UnityEngine.UIElementsModule.dll_83CE83A1356BEC2E.mvfrm
Library\Bee\artifacts\mvdfrm\UnityEngine.UIElementsNativeModule.dll_CF3A4BA9514415C5.mvfrm
Library\Bee\artifacts\mvdfrm\UnityEngine.UIModule.dll_094CC56010934427.mvfrm
Library\Bee\artifacts\mvdfrm\UnityEngine.UmbraModule.dll_34520899352AC2DA.mvfrm
Library\Bee\artifacts\mvdfrm\UnityEngine.UNETModule.dll_94844C229FFE6BAB.mvfrm
Library\Bee\artifacts\mvdfrm\UnityEngine.UnityAnalyticsCommonModule.dll_F15279CDFFEE5B4F.mvfrm
Library\Bee\artifacts\mvdfrm\UnityEngine.UnityAnalyticsModule.dll_E70F7F7ABD6DBA94.mvfrm
Library\Bee\artifacts\mvdfrm\UnityEngine.UnityConnectModule.dll_1BCD3EC6830D3DE8.mvfrm
Library\Bee\artifacts\mvdfrm\UnityEngine.UnityCurlModule.dll_D7DF71E6D1CC1DA2.mvfrm
Library\Bee\artifacts\mvdfrm\UnityEngine.UnityTestProtocolModule.dll_B6F19281B12D0310.mvfrm
Library\Bee\artifacts\mvdfrm\UnityEngine.UnityWebRequestAssetBundleModule.dll_62A05713EBCBAC65.mvfrm
Library\Bee\artifacts\mvdfrm\UnityEngine.UnityWebRequestAudioModule.dll_CE1010686C708789.mvfrm
Library\Bee\artifacts\mvdfrm\UnityEngine.UnityWebRequestModule.dll_9A7E040A14012261.mvfrm
Library\Bee\artifacts\mvdfrm\UnityEngine.UnityWebRequestTextureModule.dll_BFCFF981203C587E.mvfrm
Library\Bee\artifacts\mvdfrm\UnityEngine.UnityWebRequestWWWModule.dll_DA9D2C918969DCFA.mvfrm
Library\Bee\artifacts\mvdfrm\UnityEngine.VehiclesModule.dll_1D4A8EC707AA906A.mvfrm
Library\Bee\artifacts\mvdfrm\UnityEngine.VFXModule.dll_AC1EB0FAE4917959.mvfrm
Library\Bee\artifacts\mvdfrm\UnityEngine.VideoModule.dll_DE86E0EB6A96330C.mvfrm
Library\Bee\artifacts\mvdfrm\UnityEngine.VirtualTexturingModule.dll_F3C7001829F29650.mvfrm
Library\Bee\artifacts\mvdfrm\UnityEngine.VRModule.dll_5C1EEBE5B24DC99F.mvfrm
Library\Bee\artifacts\mvdfrm\UnityEngine.WindModule.dll_782CDF61E425F49B.mvfrm
Library\Bee\artifacts\mvdfrm\UnityEngine.XRModule.dll_8EDDAEEA3B8816FD.mvfrm
Library\Bee\artifacts\mvdfrm\Unity.Android.Gradle.dll_C3CAF88F9170D86F.mvfrm
Library\Bee\artifacts\mvdfrm\Unity.Android.Types.dll_01036B0444C25F3D.mvfrm
Library\Bee\artifacts\mvdfrm\UnityEditor.Android.Extensions.dll_EA43EC111BE8A00F.mvfrm
Library\Bee\artifacts\mvdfrm\UnityEditor.iOS.Extensions.Common.dll_BD96E5BCA90C2A6C.mvfrm
Library\Bee\artifacts\mvdfrm\UnityEditor.iOS.Extensions.dll_08F7D87EB7462979.mvfrm
Library\Bee\artifacts\mvdfrm\UnityEditor.iOS.Extensions.Xcode.dll_B4AE3BA1576531A0.mvfrm
Library\Bee\artifacts\mvdfrm\UnityEditor.WindowsStandalone.Extensions.dll_0DBD298FB9B66609.mvfrm